<?xml version="1.0" encoding="UTF-8" standalone="no"?>
<svg width="260px" height="260px" viewBox="0 0 260 260" version="1.1" xmlns="http://www.w3.org/2000/svg" xmlns:xlink="http://www.w3.org/1999/xlink" xmlns:sketch="http://www.bohemiancoding.com/sketch/ns">
    <!-- Generator: Sketch 3.4 (15575) - http://www.bohemiancoding.com/sketch -->
    <title>DAG</title>
    <desc>Created with Sketch.</desc>
    <defs></defs>
    <g id="Page-1" stroke="none" stroke-width="1" fill="none" fill-rule="evenodd" sketch:type="MSPage">
        <g id="Blue-Node" sketch:type="MSLayerGroup" transform="translate(165.000000, 98.000000)">
            <path d="M18.493,31.961 C14.548,31.96 10.994,30.367 8.407,27.783 C5.822,25.195 4.23,21.642 4.229,17.696 C4.23,13.751 5.822,10.198 8.407,7.61 C10.994,5.025 14.548,3.433 18.493,3.432 C22.438,3.433 25.992,5.025 28.579,7.61 C31.164,10.198 32.756,13.751 32.757,17.696 C32.756,21.642 31.164,25.195 28.579,27.783 C25.992,30.367 22.438,31.96 18.493,31.961" id="Fill-12" fill="#BBC8D0" sketch:type="MSShapeGroup"></path>
            <path d="M18.493,38.961 C8.405,38.959 0.23,30.784 0.229,20.696 C0.23,10.609 8.405,2.433 18.493,2.432 C28.581,2.433 36.756,10.609 36.757,20.696 C36.756,30.784 28.581,38.959 18.493,38.961 M4.229,20.696 C4.23,24.642 5.822,28.195 8.407,30.783 C10.994,33.367 14.548,34.96 18.493,34.961 C22.438,34.96 25.992,33.367 28.579,30.783 C31.164,28.195 32.756,24.642 32.757,20.696 C32.756,16.751 31.164,13.198 28.579,10.61 C25.992,8.025 22.438,6.433 18.493,6.432 C14.548,6.433 10.994,8.025 8.407,10.61 C5.822,13.198 4.23,16.751 4.229,20.696" id="Fill-13" fill="#BBC8D0" sketch:type="MSShapeGroup"></path>
            <path d="M2.229,18.696 C2.229,27.679 9.51,34.961 18.493,34.961 C27.476,34.961 34.757,27.679 34.757,18.696 C34.757,9.714 27.476,2.432 18.493,2.432 C9.51,2.432 2.229,9.714 2.229,18.696" id="Fill-14" fill="#5CA5CE" sketch:type="MSShapeGroup"></path>
            <path d="M2.229,18.696 L0.229,18.696 C0.23,28.784 8.405,36.959 18.493,36.961 C28.581,36.959 36.756,28.784 36.757,18.696 C36.756,8.609 28.581,0.433 18.493,0.432 C8.405,0.433 0.23,8.609 0.229,18.696 L4.229,18.696 C4.23,14.751 5.822,11.198 8.406,8.61 C10.994,6.025 14.548,4.433 18.493,4.432 C22.438,4.433 25.992,6.025 28.579,8.61 C31.164,11.198 32.756,14.751 32.757,18.696 C32.756,22.642 31.164,26.195 28.579,28.783 C25.992,31.367 22.438,32.96 18.493,32.961 C14.548,32.96 10.994,31.367 8.406,28.783 C5.822,26.195 4.23,22.642 4.229,18.696 L2.229,18.696" id="Fill-15" fill="#264970" sketch:type="MSShapeGroup"></path>
        </g>
        <g id="Blue-Node-Copy" sketch:type="MSLayerGroup" transform="translate(110.000000, 0.000000)">
            <path d="M18.493,31.961 C14.548,31.96 10.994,30.367 8.407,27.783 C5.822,25.195 4.23,21.642 4.229,17.696 C4.23,13.751 5.822,10.198 8.407,7.61 C10.994,5.025 14.548,3.433 18.493,3.432 C22.438,3.433 25.992,5.025 28.579,7.61 C31.164,10.198 32.756,13.751 32.757,17.696 C32.756,21.642 31.164,25.195 28.579,27.783 C25.992,30.367 22.438,31.96 18.493,31.961" id="Fill-12" fill="#BBC8D0" sketch:type="MSShapeGroup"></path>
            <path d="M18.493,38.961 C8.405,38.959 0.23,30.784 0.229,20.696 C0.23,10.609 8.405,2.433 18.493,2.432 C28.581,2.433 36.756,10.609 36.757,20.696 C36.756,30.784 28.581,38.959 18.493,38.961 M4.229,20.696 C4.23,24.642 5.822,28.195 8.407,30.783 C10.994,33.367 14.548,34.96 18.493,34.961 C22.438,34.96 25.992,33.367 28.579,30.783 C31.164,28.195 32.756,24.642 32.757,20.696 C32.756,16.751 31.164,13.198 28.579,10.61 C25.992,8.025 22.438,6.433 18.493,6.432 C14.548,6.433 10.994,8.025 8.407,10.61 C5.822,13.198 4.23,16.751 4.229,20.696" id="Fill-13" fill="#BBC8D0" sketch:type="MSShapeGroup"></path>
            <path d="M2.229,18.696 C2.229,27.679 9.51,34.961 18.493,34.961 C27.476,34.961 34.757,27.679 34.757,18.696 C34.757,9.714 27.476,2.432 18.493,2.432 C9.51,2.432 2.229,9.714 2.229,18.696" id="Fill-14" fill="#5CA5CE" sketch:type="MSShapeGroup"></path>
            <path d="M2.229,18.696 L0.229,18.696 C0.23,28.784 8.405,36.959 18.493,36.961 C28.581,36.959 36.756,28.784 36.757,18.696 C36.756,8.609 28.581,0.433 18.493,0.432 C8.405,0.433 0.23,8.609 0.229,18.696 L4.229,18.696 C4.23,14.751 5.822,11.198 8.406,8.61 C10.994,6.025 14.548,4.433 18.493,4.432 C22.438,4.433 25.992,6.025 28.579,8.61 C31.164,11.198 32.756,14.751 32.757,18.696 C32.756,22.642 31.164,26.195 28.579,28.783 C25.992,31.367 22.438,32.96 18.493,32.961 C14.548,32.96 10.994,31.367 8.406,28.783 C5.822,26.195 4.23,22.642 4.229,18.696 L2.229,18.696" id="Fill-15" fill="#264970" sketch:type="MSShapeGroup"></path>
        </g>
        <g id="Blue-Node-Copy-2" sketch:type="MSLayerGroup" transform="translate(108.000000, 220.000000)">
            <path d="M18.493,31.961 C14.548,31.96 10.994,30.367 8.407,27.783 C5.822,25.195 4.23,21.642 4.229,17.696 C4.23,13.751 5.822,10.198 8.407,7.61 C10.994,5.025 14.548,3.433 18.493,3.432 C22.438,3.433 25.992,5.025 28.579,7.61 C31.164,10.198 32.756,13.751 32.757,17.696 C32.756,21.642 31.164,25.195 28.579,27.783 C25.992,30.367 22.438,31.96 18.493,31.961" id="Fill-12" fill="#BBC8D0" sketch:type="MSShapeGroup"></path>
            <path d="M18.493,38.961 C8.405,38.959 0.23,30.784 0.229,20.696 C0.23,10.609 8.405,2.433 18.493,2.432 C28.581,2.433 36.756,10.609 36.757,20.696 C36.756,30.784 28.581,38.959 18.493,38.961 M4.229,20.696 C4.23,24.642 5.822,28.195 8.407,30.783 C10.994,33.367 14.548,34.96 18.493,34.961 C22.438,34.96 25.992,33.367 28.579,30.783 C31.164,28.195 32.756,24.642 32.757,20.696 C32.756,16.751 31.164,13.198 28.579,10.61 C25.992,8.025 22.438,6.433 18.493,6.432 C14.548,6.433 10.994,8.025 8.407,10.61 C5.822,13.198 4.23,16.751 4.229,20.696" id="Fill-13" fill="#BBC8D0" sketch:type="MSShapeGroup"></path>
            <path d="M2.229,18.696 C2.229,27.679 9.51,34.961 18.493,34.961 C27.476,34.961 34.757,27.679 34.757,18.696 C34.757,9.714 27.476,2.432 18.493,2.432 C9.51,2.432 2.229,9.714 2.229,18.696" id="Fill-14" fill="#5CA5CE" sketch:type="MSShapeGroup"></path>
            <path d="M2.229,18.696 L0.229,18.696 C0.23,28.784 8.405,36.959 18.493,36.961 C28.581,36.959 36.756,28.784 36.757,18.696 C36.756,8.609 28.581,0.433 18.493,0.432 C8.405,0.433 0.23,8.609 0.229,18.696 L4.229,18.696 C4.23,14.751 5.822,11.198 8.406,8.61 C10.994,6.025 14.548,4.433 18.493,4.432 C22.438,4.433 25.992,6.025 28.579,8.61 C31.164,11.198 32.756,14.751 32.757,18.696 C32.756,22.642 31.164,26.195 28.579,28.783 C25.992,31.367 22.438,32.96 18.493,32.961 C14.548,32.96 10.994,31.367 8.406,28.783 C5.822,26.195 4.23,22.642 4.229,18.696 L2.229,18.696" id="Fill-15" fill="#264970" sketch:type="MSShapeGroup"></path>
        </g>
        <g id="Red-Node" sketch:type="MSLayerGroup" transform="translate(92.000000, 85.000000)">
            <path d="M18.493,31.961 C14.548,31.96 10.994,30.367 8.407,27.783 C5.822,25.195 4.23,21.642 4.229,17.696 C4.23,13.751 5.822,10.198 8.407,7.61 C10.994,5.025 14.548,3.433 18.493,3.432 C22.438,3.433 25.992,5.025 28.579,7.61 C31.164,10.198 32.756,13.751 32.757,17.696 C32.756,21.642 31.164,25.195 28.579,27.783 C25.992,30.367 22.438,31.96 18.493,31.961" id="Fill-12" fill="#BBC8D0" sketch:type="MSShapeGroup"></path>
            <path d="M18.493,38.961 C8.405,38.959 0.23,30.784 0.229,20.696 C0.23,10.609 8.405,2.433 18.493,2.432 C28.581,2.433 36.756,10.609 36.757,20.696 C36.756,30.784 28.581,38.959 18.493,38.961 M4.229,20.696 C4.23,24.642 5.822,28.195 8.407,30.783 C10.994,33.367 14.548,34.96 18.493,34.961 C22.438,34.96 25.992,33.367 28.579,30.783 C31.164,28.195 32.756,24.642 32.757,20.696 C32.756,16.751 31.164,13.198 28.579,10.61 C25.992,8.025 22.438,6.433 18.493,6.432 C14.548,6.433 10.994,8.025 8.407,10.61 C5.822,13.198 4.23,16.751 4.229,20.696" id="Fill-13" fill="#BBC8D0" sketch:type="MSShapeGroup"></path>
            <path d="M2.229,18.696 C2.229,27.679 9.51,34.961 18.493,34.961 C27.476,34.961 34.757,27.679 34.757,18.696 C34.757,9.714 27.476,2.432 18.493,2.432 C9.51,2.432 2.229,9.714 2.229,18.696" id="Fill-14" fill="#D04437" sketch:type="MSShapeGroup"></path>
            <path d="M2.229,18.696 L0.229,18.696 C0.23,28.784 8.405,36.959 18.493,36.961 C28.581,36.959 36.756,28.784 36.757,18.696 C36.756,8.609 28.581,0.433 18.493,0.432 C8.405,0.433 0.23,8.609 0.229,18.696 L4.229,18.696 C4.23,14.751 5.822,11.198 8.406,8.61 C10.994,6.025 14.548,4.433 18.493,4.432 C22.438,4.433 25.992,6.025 28.579,8.61 C31.164,11.198 32.756,14.751 32.757,18.696 C32.756,22.642 31.164,26.195 28.579,28.783 C25.992,31.367 22.438,32.96 18.493,32.961 C14.548,32.96 10.994,31.367 8.406,28.783 C5.822,26.195 4.23,22.642 4.229,18.696 L2.229,18.696" id="Fill-15" fill="#264970" sketch:type="MSShapeGroup"></path>
        </g>
        <g id="Red-Node-Copy" sketch:type="MSLayerGroup" transform="translate(9.000000, 83.000000)">
            <path d="M18.493,31.961 C14.548,31.96 10.994,30.367 8.407,27.783 C5.822,25.195 4.23,21.642 4.229,17.696 C4.23,13.751 5.822,10.198 8.407,7.61 C10.994,5.025 14.548,3.433 18.493,3.432 C22.438,3.433 25.992,5.025 28.579,7.61 C31.164,10.198 32.756,13.751 32.757,17.696 C32.756,21.642 31.164,25.195 28.579,27.783 C25.992,30.367 22.438,31.96 18.493,31.961" id="Fill-12" fill="#BBC8D0" sketch:type="MSShapeGroup"></path>
            <path d="M18.493,38.961 C8.405,38.959 0.23,30.784 0.229,20.696 C0.23,10.609 8.405,2.433 18.493,2.432 C28.581,2.433 36.756,10.609 36.757,20.696 C36.756,30.784 28.581,38.959 18.493,38.961 M4.229,20.696 C4.23,24.642 5.822,28.195 8.407,30.783 C10.994,33.367 14.548,34.96 18.493,34.961 C22.438,34.96 25.992,33.367 28.579,30.783 C31.164,28.195 32.756,24.642 32.757,20.696 C32.756,16.751 31.164,13.198 28.579,10.61 C25.992,8.025 22.438,6.433 18.493,6.432 C14.548,6.433 10.994,8.025 8.407,10.61 C5.822,13.198 4.23,16.751 4.229,20.696" id="Fill-13" fill="#BBC8D0" sketch:type="MSShapeGroup"></path>
            <path d="M2.229,18.696 C2.229,27.679 9.51,34.961 18.493,34.961 C27.476,34.961 34.757,27.679 34.757,18.696 C34.757,9.714 27.476,2.432 18.493,2.432 C9.51,2.432 2.229,9.714 2.229,18.696" id="Fill-14" fill="#F79232" sketch:type="MSShapeGroup"></path>
            <path d="M2.229,18.696 L0.229,18.696 C0.23,28.784 8.405,36.959 18.493,36.961 C28.581,36.959 36.756,28.784 36.757,18.696 C36.756,8.609 28.581,0.433 18.493,0.432 C8.405,0.433 0.23,8.609 0.229,18.696 L4.229,18.696 C4.23,14.751 5.822,11.198 8.406,8.61 C10.994,6.025 14.548,4.433 18.493,4.432 C22.438,4.433 25.992,6.025 28.579,8.61 C31.164,11.198 32.756,14.751 32.757,18.696 C32.756,22.642 31.164,26.195 28.579,28.783 C25.992,31.367 22.438,32.96 18.493,32.961 C14.548,32.96 10.994,31.367 8.406,28.783 C5.822,26.195 4.23,22.642 4.229,18.696 L2.229,18.696" id="Fill-15" fill="#264970" sketch:type="MSShapeGroup"></path>
        </g>
        <g id="Red-Node-Copy-2" sketch:type="MSLayerGroup" transform="translate(215.000000, 31.000000)">
            <path d="M18.493,31.961 C14.548,31.96 10.994,30.367 8.407,27.783 C5.822,25.195 4.23,21.642 4.229,17.696 C4.23,13.751 5.822,10.198 8.407,7.61 C10.994,5.025 14.548,3.433 18.493,3.432 C22.438,3.433 25.992,5.025 28.579,7.61 C31.164,10.198 32.756,13.751 32.757,17.696 C32.756,21.642 31.164,25.195 28.579,27.783 C25.992,30.367 22.438,31.96 18.493,31.961" id="Fill-12" fill="#BBC8D0" sketch:type="MSShapeGroup"></path>
            <path d="M18.493,38.961 C8.405,38.959 0.23,30.784 0.229,20.696 C0.23,10.609 8.405,2.433 18.493,2.432 C28.581,2.433 36.756,10.609 36.757,20.696 C36.756,30.784 28.581,38.959 18.493,38.961 M4.229,20.696 C4.23,24.642 5.822,28.195 8.407,30.783 C10.994,33.367 14.548,34.96 18.493,34.961 C22.438,34.96 25.992,33.367 28.579,30.783 C31.164,28.195 32.756,24.642 32.757,20.696 C32.756,16.751 31.164,13.198 28.579,10.61 C25.992,8.025 22.438,6.433 18.493,6.432 C14.548,6.433 10.994,8.025 8.407,10.61 C5.822,13.198 4.23,16.751 4.229,20.696" id="Fill-13" fill="#BBC8D0" sketch:type="MSShapeGroup"></path>
            <path d="M2.229,18.696 C2.229,27.679 9.51,34.961 18.493,34.961 C27.476,34.961 34.757,27.679 34.757,18.696 C34.757,9.714 27.476,2.432 18.493,2.432 C9.51,2.432 2.229,9.714 2.229,18.696" id="Fill-14" fill="#F79232" sketch:type="MSShapeGroup"></path>
            <path d="M2.229,18.696 L0.229,18.696 C0.23,28.784 8.405,36.959 18.493,36.961 C28.581,36.959 36.756,28.784 36.757,18.696 C36.756,8.609 28.581,0.433 18.493,0.432 C8.405,0.433 0.23,8.609 0.229,18.696 L4.229,18.696 C4.23,14.751 5.822,11.198 8.406,8.61 C10.994,6.025 14.548,4.433 18.493,4.432 C22.438,4.433 25.992,6.025 28.579,8.61 C31.164,11.198 32.756,14.751 32.757,18.696 C32.756,22.642 31.164,26.195 28.579,28.783 C25.992,31.367 22.438,32.96 18.493,32.961 C14.548,32.96 10.994,31.367 8.406,28.783 C5.822,26.195 4.23,22.642 4.229,18.696 L2.229,18.696" id="Fill-15" fill="#264970" sketch:type="MSShapeGroup"></path>
        </g>
        <g id="Teal-Node" sketch:type="MSLayerGroup" transform="translate(29.000000, 168.000000)">
            <path d="M18.493,31.961 C14.548,31.96 10.994,30.367 8.407,27.783 C5.822,25.195 4.23,21.642 4.229,17.696 C4.23,13.751 5.822,10.198 8.407,7.61 C10.994,5.025 14.548,3.433 18.493,3.432 C22.438,3.433 25.992,5.025 28.579,7.61 C31.164,10.198 32.756,13.751 32.757,17.696 C32.756,21.642 31.164,25.195 28.579,27.783 C25.992,30.367 22.438,31.96 18.493,31.961" id="Fill-12" fill="#BBC8D0" sketch:type="MSShapeGroup"></path>
            <path d="M18.493,38.961 C8.405,38.959 0.23,30.784 0.229,20.696 C0.23,10.609 8.405,2.433 18.493,2.432 C28.581,2.433 36.756,10.609 36.757,20.696 C36.756,30.784 28.581,38.959 18.493,38.961 M4.229,20.696 C4.23,24.642 5.822,28.195 8.407,30.783 C10.994,33.367 14.548,34.96 18.493,34.961 C22.438,34.96 25.992,33.367 28.579,30.783 C31.164,28.195 32.756,24.642 32.757,20.696 C32.756,16.751 31.164,13.198 28.579,10.61 C25.992,8.025 22.438,6.433 18.493,6.432 C14.548,6.433 10.994,8.025 8.407,10.61 C5.822,13.198 4.23,16.751 4.229,20.696" id="Fill-13" fill="#BBC8D0" sketch:type="MSShapeGroup"></path>
            <path d="M2.229,18.696 C2.229,27.679 9.51,34.961 18.493,34.961 C27.476,34.961 34.757,27.679 34.757,18.696 C34.757,9.714 27.476,2.432 18.493,2.432 C9.51,2.432 2.229,9.714 2.229,18.696" id="Fill-14" fill="#55BBB6" sketch:type="MSShapeGroup"></path>
            <path d="M2.229,18.696 L0.229,18.696 C0.23,28.784 8.405,36.959 18.493,36.961 C28.581,36.959 36.756,28.784 36.757,18.696 C36.756,8.609 28.581,0.433 18.493,0.432 C8.405,0.433 0.23,8.609 0.229,18.696 L4.229,18.696 C4.23,14.751 5.822,11.198 8.406,8.61 C10.994,6.025 14.548,4.433 18.493,4.432 C22.438,4.433 25.992,6.025 28.579,8.61 C31.164,11.198 32.756,14.751 32.757,18.696 C32.756,22.642 31.164,26.195 28.579,28.783 C25.992,31.367 22.438,32.96 18.493,32.961 C14.548,32.96 10.994,31.367 8.406,28.783 C5.822,26.195 4.23,22.642 4.229,18.696 L2.229,18.696" id="Fill-15" fill="#264970" sketch:type="MSShapeGroup"></path>
        </g>
        <g id="Teal-Node-Copy" sketch:type="MSLayerGroup" transform="translate(148.000000, 40.000000)">
            <path d="M18.493,31.961 C14.548,31.96 10.994,30.367 8.407,27.783 C5.822,25.195 4.23,21.642 4.229,17.696 C4.23,13.751 5.822,10.198 8.407,7.61 C10.994,5.025 14.548,3.433 18.493,3.432 C22.438,3.433 25.992,5.025 28.579,7.61 C31.164,10.198 32.756,13.751 32.757,17.696 C32.756,21.642 31.164,25.195 28.579,27.783 C25.992,30.367 22.438,31.96 18.493,31.961" id="Fill-12" fill="#BBC8D0" sketch:type="MSShapeGroup"></path>
            <path d="M18.493,38.961 C8.405,38.959 0.23,30.784 0.229,20.696 C0.23,10.609 8.405,2.433 18.493,2.432 C28.581,2.433 36.756,10.609 36.757,20.696 C36.756,30.784 28.581,38.959 18.493,38.961 M4.229,20.696 C4.23,24.642 5.822,28.195 8.407,30.783 C10.994,33.367 14.548,34.96 18.493,34.961 C22.438,34.96 25.992,33.367 28.579,30.783 C31.164,28.195 32.756,24.642 32.757,20.696 C32.756,16.751 31.164,13.198 28.579,10.61 C25.992,8.025 22.438,6.433 18.493,6.432 C14.548,6.433 10.994,8.025 8.407,10.61 C5.822,13.198 4.23,16.751 4.229,20.696" id="Fill-13" fill="#BBC8D0" sketch:type="MSShapeGroup"></path>
            <path d="M2.229,18.696 C2.229,27.679 9.51,34.961 18.493,34.961 C27.476,34.961 34.757,27.679 34.757,18.696 C34.757,9.714 27.476,2.432 18.493,2.432 C9.51,2.432 2.229,9.714 2.229,18.696" id="Fill-14" fill="#55BBB6" sketch:type="MSShapeGroup"></path>
            <path d="M2.229,18.696 L0.229,18.696 C0.23,28.784 8.405,36.959 18.493,36.961 C28.581,36.959 36.756,28.784 36.757,18.696 C36.756,8.609 28.581,0.433 18.493,0.432 C8.405,0.433 0.23,8.609 0.229,18.696 L4.229,18.696 C4.23,14.751 5.822,11.198 8.406,8.61 C10.994,6.025 14.548,4.433 18.493,4.432 C22.438,4.433 25.992,6.025 28.579,8.61 C31.164,11.198 32.756,14.751 32.757,18.696 C32.756,22.642 31.164,26.195 28.579,28.783 C25.992,31.367 22.438,32.96 18.493,32.961 C14.548,32.96 10.994,31.367 8.406,28.783 C5.822,26.195 4.23,22.642 4.229,18.696 L2.229,18.696" id="Fill-15" fill="#264970" sketch:type="MSShapeGroup"></path>
        </g>
        <g id="Yellow-Node" sketch:type="MSLayerGroup" transform="translate(110.000000, 148.000000)">
            <path d="M18.493,31.961 C14.548,31.96 10.994,30.367 8.407,27.783 C5.822,25.195 4.23,21.642 4.229,17.696 C4.23,13.751 5.822,10.198 8.407,7.61 C10.994,5.025 14.548,3.433 18.493,3.432 C22.438,3.433 25.992,5.025 28.579,7.61 C31.164,10.198 32.756,13.751 32.757,17.696 C32.756,21.642 31.164,25.195 28.579,27.783 C25.992,30.367 22.438,31.96 18.493,31.961" id="Fill-12" fill="#BBC8D0" sketch:type="MSShapeGroup"></path>
            <path d="M19.493,38.961 C9.405,38.959 1.23,30.784 1.229,20.696 C1.23,10.609 9.405,2.433 19.493,2.432 C29.581,2.433 37.756,10.609 37.757,20.696 C37.756,30.784 29.581,38.959 19.493,38.961 M5.229,20.696 C5.23,24.642 6.822,28.195 9.407,30.783 C11.994,33.367 15.548,34.96 19.493,34.961 C23.438,34.96 26.992,33.367 29.579,30.783 C32.164,28.195 33.756,24.642 33.757,20.696 C33.756,16.751 32.164,13.198 29.579,10.61 C26.992,8.025 23.438,6.433 19.493,6.432 C15.548,6.433 11.994,8.025 9.407,10.61 C6.822,13.198 5.23,16.751 5.229,20.696" id="Fill-13" fill="#BBC8D0" sketch:type="MSShapeGroup"></path>
            <path d="M2.229,18.696 C2.229,27.679 9.51,34.961 18.493,34.961 C27.476,34.961 34.757,27.679 34.757,18.696 C34.757,9.714 27.476,2.432 18.493,2.432 C9.51,2.432 2.229,9.714 2.229,18.696" id="Fill-14" fill="#F4B72E" sketch:type="MSShapeGroup"></path>
            <path d="M2.229,18.696 L0.229,18.696 C0.23,28.784 8.405,36.959 18.493,36.961 C28.581,36.959 36.756,28.784 36.757,18.696 C36.756,8.609 28.581,0.433 18.493,0.432 C8.405,0.433 0.23,8.609 0.229,18.696 L4.229,18.696 C4.23,14.751 5.822,11.198 8.406,8.61 C10.994,6.025 14.548,4.433 18.493,4.432 C22.438,4.433 25.992,6.025 28.579,8.61 C31.164,11.198 32.756,14.751 32.757,18.696 C32.756,22.642 31.164,26.195 28.579,28.783 C25.992,31.367 22.438,32.96 18.493,32.961 C14.548,32.96 10.994,31.367 8.406,28.783 C5.822,26.195 4.23,22.642 4.229,18.696 L2.229,18.696" id="Fill-15" fill="#264970" sketch:type="MSShapeGroup"></path>
        </g>
        <g id="Yellow-Node-Copy" sketch:type="MSLayerGroup" transform="translate(47.000000, 20.000000)">
            <path d="M18.493,31.961 C14.548,31.96 10.994,30.367 8.407,27.783 C5.822,25.195 4.23,21.642 4.229,17.696 C4.23,13.751 5.822,10.198 8.407,7.61 C10.994,5.025 14.548,3.433 18.493,3.432 C22.438,3.433 25.992,5.025 28.579,7.61 C31.164,10.198 32.756,13.751 32.757,17.696 C32.756,21.642 31.164,25.195 28.579,27.783 C25.992,30.367 22.438,31.96 18.493,31.961" id="Fill-12" fill="#BBC8D0" sketch:type="MSShapeGroup"></path>
            <path d="M19.493,38.961 C9.405,38.959 1.23,30.784 1.229,20.696 C1.23,10.609 9.405,2.433 19.493,2.432 C29.581,2.433 37.756,10.609 37.757,20.696 C37.756,30.784 29.581,38.959 19.493,38.961 M5.229,20.696 C5.23,24.642 6.822,28.195 9.407,30.783 C11.994,33.367 15.548,34.96 19.493,34.961 C23.438,34.96 26.992,33.367 29.579,30.783 C32.164,28.195 33.756,24.642 33.757,20.696 C33.756,16.751 32.164,13.198 29.579,10.61 C26.992,8.025 23.438,6.433 19.493,6.432 C15.548,6.433 11.994,8.025 9.407,10.61 C6.822,13.198 5.23,16.751 5.229,20.696" id="Fill-13" fill="#BBC8D0" sketch:type="MSShapeGroup"></path>
            <path d="M2.229,18.696 C2.229,27.679 9.51,34.961 18.493,34.961 C27.476,34.961 34.757,27.679 34.757,18.696 C34.757,9.714 27.476,2.432 18.493,2.432 C9.51,2.432 2.229,9.714 2.229,18.696" id="Fill-14" fill="#F4B72E" sketch:type="MSShapeGroup"></path>
            <path d="M2.229,18.696 L0.229,18.696 C0.23,28.784 8.405,36.959 18.493,36.961 C28.581,36.959 36.756,28.784 36.757,18.696 C36.756,8.609 28.581,0.433 18.493,0.432 C8.405,0.433 0.23,8.609 0.229,18.696 L4.229,18.696 C4.23,14.751 5.822,11.198 8.406,8.61 C10.994,6.025 14.548,4.433 18.493,4.432 C22.438,4.433 25.992,6.025 28.579,8.61 C31.164,11.198 32.756,14.751 32.757,18.696 C32.756,22.642 31.164,26.195 28.579,28.783 C25.992,31.367 22.438,32.96 18.493,32.961 C14.548,32.96 10.994,31.367 8.406,28.783 C5.822,26.195 4.23,22.642 4.229,18.696 L2.229,18.696" id="Fill-15" fill="#264970" sketch:type="MSShapeGroup"></path>
        </g>
        <path d="M58.5,171 L99,118" id="Line" stroke="#264970" stroke-width="4" stroke-linecap="square" sketch:type="MSShapeGroup"></path>
        <path d="M46,102 L92,102" id="Line-Copy" stroke="#264970" stroke-width="4" stroke-linecap="square" sketch:type="MSShapeGroup"></path>
        <path d="M74,54 L101,87" id="Line-Copy-2" stroke="#264970" stroke-width="4" stroke-linecap="square" sketch:type="MSShapeGroup"></path>
        <path d="M126,36 L115,88" id="Line-Copy-3" stroke="#264970" stroke-width="4" stroke-linecap="square" sketch:type="MSShapeGroup"></path>
        <path d="M225,65 L195,104" id="Line-Copy-7" stroke="#264970" stroke-width="4" stroke-linecap="square" sketch:type="MSShapeGroup"></path>
        <path d="M112,171 L65,183" id="Line-Copy-11" stroke="#264970" stroke-width="4" stroke-linecap="square" sketch:type="MSShapeGroup"></path>
        <path d="M110,236 L55,202" id="Line-Copy-12" stroke="#264970" stroke-width="4" stroke-linecap="square" sketch:type="MSShapeGroup"></path>
        <path d="M152,70 L126,93" id="Line-Copy-4" stroke="#264970" stroke-width="4" stroke-linecap="square" sketch:type="MSShapeGroup"></path>
        <path d="M123,151 L116,119" id="Line-Copy-6" stroke="#264970" stroke-width="4" stroke-linecap="square" sketch:type="MSShapeGroup"></path>
        <path d="M167,113 L129,108" id="Line-Copy-5" stroke="#264970" stroke-width="4" stroke-linecap="square" sketch:type="MSShapeGroup"></path>
    </g>
</svg>